{
    "cases": [
        {
            "source_image": "https://gitlab.kit.edu/uetou/topic-2-a-gamified-explainable-artificial-intelligence-evaluation-tool/-/raw/main/aid-game-backend/resources/case_images/1.1.png?ref_type=heads",
            "heatmap_image": "https://gitlab.kit.edu/uetou/topic-2-a-gamified-explainable-artificial-intelligence-evaluation-tool/-/raw/main/aid-game-backend/resources/case_images/1.1h.png?ref_type=heads",
            "explanation_text": "Survival: 35 Months",
            "case_id": 1,
            "accuracy": [10,6,3,2,2],
            "clarity": [8,7,6,7,3],
            "consistency": [9,4,5,2,7],
            "usefulness": [9,5,3,4,5],
            "confidence": [10,10,2,6,7],
            "reliability": [7,5,7,3,6],
            "additionalRemarks": ["This is a good example"]
        },
        {
            "source_image": "https://gitlab.kit.edu/uetou/topic-2-a-gamified-explainable-artificial-intelligence-evaluation-tool/-/raw/main/aid-game-backend/resources/case_images/1.2.png?ref_type=heads",
            "heatmap_image": "https://gitlab.kit.edu/uetou/topic-2-a-gamified-explainable-artificial-intelligence-evaluation-tool/-/raw/main/aid-game-backend/resources/case_images/1.2h.png?ref_type=heads",
            "explanation_text": "Survival: 182 Months",
            "case_id": 2,
            "accuracy": [5,4,6,7,3],
            "clarity": [5,4,2,4,5],
            "consistency": [5,5,7,3,7],
            "usefulness": [5,3,7,9,3],
            "confidence": [5,4,7,2,3],
            "reliability": [4,5,6,7,5],
            "additionalRemarks": ["Kind of OK", "Good"]
        },
        {
            "source_image": "https://gitlab.kit.edu/uetou/topic-2-a-gamified-explainable-artificial-intelligence-evaluation-tool/-/raw/main/aid-game-backend/resources/case_images/1.3.png?ref_type=heads",
            "heatmap_image": "https://gitlab.kit.edu/uetou/topic-2-a-gamified-explainable-artificial-intelligence-evaluation-tool/-/raw/main/aid-game-backend/resources/case_images/1.3h.png?ref_type=heads",
            "explanation_text": "Survival: 57 Months",
            "case_id": 3,
            "accuracy": [5,4,3,6,7],
            "clarity": [5,8,7,9,3],
            "consistency": [8,5,7,3,6],
            "usefulness": [5,6,3,5,7],
            "confidence": [5,4,7,5,6],
            "reliability": [5,7,6,6,6],
            "additionalRemarks": ["It is fine"]
        },
        {
            "source_image": "https://gitlab.kit.edu/uetou/topic-2-a-gamified-explainable-artificial-intelligence-evaluation-tool/-/raw/main/aid-game-backend/resources/case_images/1.4.png?ref_type=heads",
            "heatmap_image": "https://gitlab.kit.edu/uetou/topic-2-a-gamified-explainable-artificial-intelligence-evaluation-tool/-/raw/main/aid-game-backend/resources/case_images/1.4h.png?ref_type=heads",
            "explanation_text": "Survival: 18 Months",
            "case_id": 4,
            "accuracy": [5,7,7,4,6],
            "clarity": [5,8,5,8,7],
            "consistency": [5,6,4,5,7],
            "usefulness": [5,4,5,7,9],
            "confidence": [5,8,9,7,7],
            "reliability": [5,1,2,3,1],
            "additionalRemarks": ["Alright", "Fine"]
        },
        {
            "source_image": "https://gitlab.kit.edu/uetou/topic-2-a-gamified-explainable-artificial-intelligence-evaluation-tool/-/raw/main/aid-game-backend/resources/case_images/1.5.png?ref_type=heads",
            "heatmap_image": "https://gitlab.kit.edu/uetou/topic-2-a-gamified-explainable-artificial-intelligence-evaluation-tool/-/raw/main/aid-game-backend/resources/case_images/1.5h.png?ref_type=heads",
            "explanation_text": "Survival: 30 Months",
            "case_id": 5,
            "accuracy": [5,2,1,2,4],
            "clarity": [5,5,8,6,5],
            "consistency": [5,8,6,4,3],
            "usefulness": [5,4,7,8,4],
            "confidence": [8,5,4,5,3],
            "reliability": [5,1,7,4,7],
            "additionalRemarks": ["Could be more conservative in the prediction"]
        },
        {
            "source_image": "https://gitlab.kit.edu/uetou/topic-2-a-gamified-explainable-artificial-intelligence-evaluation-tool/-/raw/main/aid-game-backend/resources/case_images/2.1.png?ref_type=heads",
            "heatmap_image": "https://gitlab.kit.edu/uetou/topic-2-a-gamified-explainable-artificial-intelligence-evaluation-tool/-/raw/main/aid-game-backend/resources/case_images/2.1h.png?ref_type=heads",
            "explanation_text": "Survival: 59 Months",
            "case_id": 6,
            "accuracy": [5],
            "clarity": [5],
            "consistency": [5],
            "usefulness": [5],
            "confidence": [5],
            "reliability": [5],
            "additionalRemarks": [5]
        },
        {
            "source_image": "https://gitlab.kit.edu/uetou/topic-2-a-gamified-explainable-artificial-intelligence-evaluation-tool/-/raw/main/aid-game-backend/resources/case_images/2.2.png?ref_type=heads",
            "heatmap_image": "https://gitlab.kit.edu/uetou/topic-2-a-gamified-explainable-artificial-intelligence-evaluation-tool/-/raw/main/aid-game-backend/resources/case_images/2.2h.png?ref_type=heads",
            "explanation_text": "Survival: 27 Months",
            "case_id": 7,
            "accuracy": [5],
            "clarity": [5],
            "consistency": [5],
            "usefulness": [5],
            "confidence": [5],
            "reliability": [5],
            "additionalRemarks": [5]
        },
        {
            "source_image": "https://gitlab.kit.edu/uetou/topic-2-a-gamified-explainable-artificial-intelligence-evaluation-tool/-/raw/main/aid-game-backend/resources/case_images/2.3.png?ref_type=heads",
            "heatmap_image": "https://gitlab.kit.edu/uetou/topic-2-a-gamified-explainable-artificial-intelligence-evaluation-tool/-/raw/main/aid-game-backend/resources/case_images/2.3h.png?ref_type=heads",
            "explanation_text": "Survival: 5 Months",
            "case_id": 8,
            "accuracy": [5],
            "clarity": [5],
            "consistency": [5],
            "usefulness": [5],
            "confidence": [5],
            "reliability": [5],
            "additionalRemarks": [5]
        },
        {
            "source_image": "https://gitlab.kit.edu/uetou/topic-2-a-gamified-explainable-artificial-intelligence-evaluation-tool/-/raw/main/aid-game-backend/resources/case_images/2.4.png?ref_type=heads",
            "heatmap_image": "https://gitlab.kit.edu/uetou/topic-2-a-gamified-explainable-artificial-intelligence-evaluation-tool/-/raw/main/aid-game-backend/resources/case_images/2.4h.png?ref_type=heads",
            "explanation_text": "Survival: 5 Months",
            "case_id": 9,
            "accuracy": [5],
            "clarity": [5],
            "consistency": [5],
            "usefulness": [5],
            "confidence": [5],
            "reliability": [5],
            "additionalRemarks": [5]
        },
        {
            "source_image": "https://gitlab.kit.edu/uetou/topic-2-a-gamified-explainable-artificial-intelligence-evaluation-tool/-/raw/main/aid-game-backend/resources/case_images/2.5.png?ref_type=heads",
            "heatmap_image": "https://gitlab.kit.edu/uetou/topic-2-a-gamified-explainable-artificial-intelligence-evaluation-tool/-/raw/main/aid-game-backend/resources/case_images/2.5h.png?ref_type=heads",
            "explanation_text": "Survival: 12 Months",
            "case_id": 10,
            "accuracy": [5],
            "clarity": [5],
            "consistency": [5],
            "usefulness": [5],
            "confidence": [5],
            "reliability": [5],
            "additionalRemarks": [5]
        },
        {
            "source_image": "https://gitlab.kit.edu/uetou/topic-2-a-gamified-explainable-artificial-intelligence-evaluation-tool/-/raw/main/aid-game-backend/resources/case_images/3.1.png?ref_type=heads",
            "heatmap_image": "https://gitlab.kit.edu/uetou/topic-2-a-gamified-explainable-artificial-intelligence-evaluation-tool/-/raw/main/aid-game-backend/resources/case_images/3.1h.png?ref_type=heads",
            "explanation_text": "Survival: 15 Months",
            "case_id": 11,
            "accuracy": [5],
            "clarity": [5],
            "consistency": [5],
            "usefulness": [5],
            "confidence": [5],
            "reliability": [5],
            "additionalRemarks": [5]
        },
        {
            "source_image": "https://gitlab.kit.edu/uetou/topic-2-a-gamified-explainable-artificial-intelligence-evaluation-tool/-/raw/main/aid-game-backend/resources/case_images/3.2.png?ref_type=heads",
            "heatmap_image": "https://gitlab.kit.edu/uetou/topic-2-a-gamified-explainable-artificial-intelligence-evaluation-tool/-/raw/main/aid-game-backend/resources/case_images/3.2h.png?ref_type=heads",
            "explanation_text": "Survival: 2 Months",
            "case_id": 12,
            "accuracy": [5],
            "clarity": [5],
            "consistency": [5],
            "usefulness": [5],
            "confidence": [5],
            "reliability": [5],
            "additionalRemarks": [5]
        },
        {
            "source_image": "https://gitlab.kit.edu/uetou/topic-2-a-gamified-explainable-artificial-intelligence-evaluation-tool/-/raw/main/aid-game-backend/resources/case_images/3.3.png?ref_type=heads",
            "heatmap_image": "https://gitlab.kit.edu/uetou/topic-2-a-gamified-explainable-artificial-intelligence-evaluation-tool/-/raw/main/aid-game-backend/resources/case_images/3.3h.png?ref_type=heads",
            "explanation_text": "Survival: 16 Months",
            "case_id": 13,
            "accuracy": [5],
            "clarity": [5],
            "consistency": [5],
            "usefulness": [5],
            "confidence": [5],
            "reliability": [5],
            "additionalRemarks": [5]
        },
        {
            "source_image": "https://gitlab.kit.edu/uetou/topic-2-a-gamified-explainable-artificial-intelligence-evaluation-tool/-/raw/main/aid-game-backend/resources/case_images/3.4.png?ref_type=heads",
            "heatmap_image": "https://gitlab.kit.edu/uetou/topic-2-a-gamified-explainable-artificial-intelligence-evaluation-tool/-/raw/main/aid-game-backend/resources/case_images/3.4h.png?ref_type=heads",
            "explanation_text": "Survival: 28 Months",
            "case_id": 14,
            "accuracy": [5],
            "clarity": [5],
            "consistency": [5],
            "usefulness": [5],
            "confidence": [5],
            "reliability": [5],
            "additionalRemarks": [5]
        },
        {
            "source_image": "https://gitlab.kit.edu/uetou/topic-2-a-gamified-explainable-artificial-intelligence-evaluation-tool/-/raw/main/aid-game-backend/resources/case_images/3.5.png?ref_type=heads",
            "heatmap_image": "https://gitlab.kit.edu/uetou/topic-2-a-gamified-explainable-artificial-intelligence-evaluation-tool/-/raw/main/aid-game-backend/resources/case_images/3.5h.png?ref_type=heads",
            "explanation_text": "Survival: 14 Months",
            "case_id": 15,
            "accuracy": [5],
            "clarity": [5],
            "consistency": [5],
            "usefulness": [5],
            "confidence": [5],
            "reliability": [5],
            "additionalRemarks": [5]
        }
    ],
    "cards": [
        {
            "url": "https://gitlab.kit.edu/uetou/topic-2-a-gamified-explainable-artificial-intelligence-evaluation-tool/-/raw/main/aid-game-backend/resources/card_images/card_1.png?ref_type=heads",
            "name": "Card 1"
        },
        {
            "url": "https://gitlab.kit.edu/uetou/topic-2-a-gamified-explainable-artificial-intelligence-evaluation-tool/-/raw/main/aid-game-backend/resources/card_images/card_2.png?ref_type=heads",
            "name": "Card 2"
        },
        {
            "url": "https://gitlab.kit.edu/uetou/topic-2-a-gamified-explainable-artificial-intelligence-evaluation-tool/-/raw/main/aid-game-backend/resources/card_images/card_3.png?ref_type=heads",
            "name": "Card 3"
        },
        {
            "url": "https://gitlab.kit.edu/uetou/topic-2-a-gamified-explainable-artificial-intelligence-evaluation-tool/-/raw/main/aid-game-backend/resources/card_images/card_4.png?ref_type=heads",
            "name": "Card 4"
        },
        {
            "url": "https://gitlab.kit.edu/uetou/topic-2-a-gamified-explainable-artificial-intelligence-evaluation-tool/-/raw/main/aid-game-backend/resources/card_images/card_5.png?ref_type=heads",
            "name": "Card 5"
        },
        {
            "url": "https://gitlab.kit.edu/uetou/topic-2-a-gamified-explainable-artificial-intelligence-evaluation-tool/-/raw/main/aid-game-backend/resources/card_images/card_6.png?ref_type=heads",
            "name": "Card 6"
        }
    ],
    "quiz": [
        {
            "question": "What is the primary use of AI in radiology?",
            "options": [
                "A. Automated patient scheduling",
                "B. Predicting weather impacts on health",
                "C. Image analysis and interpretation"
            ],
            "answer": "C. Image analysis and interpretation"
        },
        {
            "question": "Which of these is a benefit of using AI in healthcare?",
            "options": [
                "A. Increased diagnostic errors",
                "B. Personalized treatment plans",
                "C. Reduced interaction between patient and doctor"
            ],
            "answer": "B. Personalized treatment plans"
        },
        {
            "question": "What is an example of AI in predictive healthcare?",
            "options": [
                "A. Hospital parking management",
                "B. Predictive analytics for patient risk assessment",
                "C. Online appointment systems"
            ],
            "answer": "B. Predictive analytics for patient risk assessment"
        },
        {
            "question": "Which technology is crucial for AI's role in drug discovery?",
            "options": [
                "A. Blockchain",
                "B. Quantum Computing",
                "C. Machine Learning"
            ],
            "answer": "C. Machine Learning"
        },
        {
            "question": "How can AI assist in patient care management?",
            "options": [
                "A. By reducing the number of staff in hospitals",
                "B. By providing entertainment to patients",
                "C. By monitoring patient vitals and predicting complications"
            ],
            "answer": "C. By monitoring patient vitals and predicting complications"
        },
        {
            "question": "What is a significant challenge in implementing AI in healthcare?",
            "options": [
                "A. Lack of historical health data",
                "B. Excessive accuracy of predictions",
                "C. Patient interest in new technology"
            ],
            "answer": "A. Lack of historical health data"
        },
        {
            "question": "What role does AI play in surgery?",
            "options": [
                "A. Replacing human surgeons entirely",
                "B. Providing assistance and precision in surgical procedures",
                "C. Decreasing the need for surgery"
            ],
            "answer": "B. Providing assistance and precision in surgical procedures"
        },
        {
            "question": "How is AI used in mental health treatment?",
            "options": [
                "A. Replacing human therapists",
                "B. Analyzing speech and pattern recognition to assess conditions",
                "C. Increasing the cost of mental health care"
            ],
            "answer": "B. Analyzing speech and pattern recognition to assess conditions"
        },
        {
            "question": "What does AI in healthcare primarily aim to improve?",
            "options": [
                "A. Speed of service delivery",
                "B. Patient outcomes",
                "C. The number of medical facilities"
            ],
            "answer": "B. Patient outcomes"
        },
        {
            "question": "Which of the following is a concern regarding AI in healthcare?",
            "options": [
                "A. Reduced need for human doctors",
                "B. Patient privacy and data security",
                "C. Increased healthcare costs"
            ],
            "answer": "B. Patient privacy and data security"
        }
    ],
    "experts": [
        {
            "name": "Aleks",
            "link": "https://github.com/Sashks",
            "points": 250,
            "level": 2,
            "lastPointUpdate": "2024-01-17T15:11:53.074Z"
        },
        {
            "name": "Frithjof",
            "link": "https://www.linkedin.com/in/frithjof-eisenlohr-30b802252/",
            "points": 225,
            "level": 6,
            "lastPointUpdate": "2024-01-17T15:11:53.074Z" 
        },
        {
            "name": "Nhung",
            "link": "https://aifb.kit.edu/web/Hauptseite",
            "points": 305,
            "level": 4,
            "lastPointUpdate": "2024-01-17T15:11:53.074Z" 
        },
        {
            "name": "Simon",
            "link": "https://cii.aifb.kit.edu/70_1030.php",
            "points": 205,
            "level": 5,
            "lastPointUpdate": "2024-01-17T15:11:53.074Z" 
        },
        {
            "name": "Philipp",
            "link": "https://cii.aifb.kit.edu/70_170.php",
            "points": 245,
            "level": 3,
            "lastPointUpdate": "2024-01-17T15:11:53.074Z" 
        }
    ]
}